################################ Unigrams ################################

Model: svm
Five-fold cross-validation all polarity
Features: [1-grams] 
Features: [1-grams] 
Features: [1-grams] 
Features: [1-grams] 
Features: [1-grams] 
Accuracy: 0.796875
             precision    recall  f1-score   support

  deceptive      0.851     0.720     0.780       800
   truthful      0.757     0.874     0.811       800

avg / total      0.804     0.797     0.796      1600


Model: nb
Five-fold cross-validation all polarity
Features: [1-grams] 
Features: [1-grams] 
Features: [1-grams] 
Features: [1-grams] 
Features: [1-grams] 
Accuracy: 0.838125
             precision    recall  f1-score   support

  deceptive      0.864     0.802     0.832       800
   truthful      0.816     0.874     0.844       800

avg / total      0.840     0.838     0.838      1600


Model: random_forest
Five-fold cross-validation all polarity
Features: [1-grams] 
Features: [1-grams] 
Features: [1-grams] 
Features: [1-grams] 
Features: [1-grams] 
Accuracy: 0.871875
             precision    recall  f1-score   support

  deceptive      0.861     0.887     0.874       800
   truthful      0.884     0.856     0.870       800

avg / total      0.872     0.872     0.872      1600


Model: logit
Five-fold cross-validation all polarity
Features: [1-grams] 
Features: [1-grams] 
Features: [1-grams] 
Features: [1-grams] 
Features: [1-grams] 
Accuracy: 0.875
             precision    recall  f1-score   support

  deceptive      0.886     0.861     0.873       800
   truthful      0.865     0.889     0.877       800

avg / total      0.875     0.875     0.875      1600


Model: mlp
Five-fold cross-validation all polarity
Features: [1-grams] 
Features: [1-grams] 
Features: [1-grams] 
Features: [1-grams] 
Features: [1-grams] 
Accuracy: 0.87375
             precision    recall  f1-score   support

  deceptive      0.884     0.860     0.872       800
   truthful      0.864     0.887     0.875       800

avg / total      0.874     0.874     0.874      1600


Model: sgd
Five-fold cross-validation all polarity
Features: [1-grams] 
Features: [1-grams] 
Features: [1-grams] 
Features: [1-grams] 
Features: [1-grams] 
Accuracy: 0.8825
             precision    recall  f1-score   support

  deceptive      0.894     0.868     0.881       800
   truthful      0.871     0.897     0.884       800

avg / total      0.883     0.882     0.882      1600


Model: linear_svm
Five-fold cross-validation all polarity
Features: [1-grams] 
Features: [1-grams] 
Features: [1-grams] 
Features: [1-grams] 
Features: [1-grams] 
Accuracy: 0.88625
             precision    recall  f1-score   support

  deceptive      0.896     0.874     0.885       800
   truthful      0.877     0.899     0.888       800

avg / total      0.886     0.886     0.886      1600

################################ Bigrams ################################

Model: svm
Five-fold cross-validation all polarity
Features: [2-grams] 
Features: [2-grams] 
Features: [2-grams] 
Features: [2-grams] 
Features: [2-grams] 
Accuracy: 0.806875
             precision    recall  f1-score   support

  deceptive      0.867     0.725     0.790       800
   truthful      0.764     0.889     0.821       800

avg / total      0.815     0.807     0.806      1600


Model: nb
Five-fold cross-validation all polarity
Features: [2-grams] 
Features: [2-grams] 
Features: [2-grams] 
Features: [2-grams] 
Features: [2-grams] 
Accuracy: 0.88625
             precision    recall  f1-score   support

  deceptive      0.855     0.930     0.891       800
   truthful      0.923     0.843     0.881       800

avg / total      0.889     0.886     0.886      1600


Model: random_forest
Five-fold cross-validation all polarity
Features: [2-grams] 
Features: [2-grams] 
Features: [2-grams] 
Features: [2-grams] 
Features: [2-grams] 
Accuracy: 0.850625
             precision    recall  f1-score   support

  deceptive      0.816     0.906     0.858       800
   truthful      0.895     0.795     0.842       800

avg / total      0.855     0.851     0.850      1600


Model: logit
Five-fold cross-validation all polarity
Features: [2-grams] 
Features: [2-grams] 
Features: [2-grams] 
Features: [2-grams] 
Features: [2-grams] 
Accuracy: 0.88375
             precision    recall  f1-score   support

  deceptive      0.879     0.890     0.884       800
   truthful      0.889     0.877     0.883       800

avg / total      0.884     0.884     0.884      1600


Model: mlp
Five-fold cross-validation all polarity
Features: [2-grams] 
Features: [2-grams] 
Features: [2-grams] 
Features: [2-grams] 
Features: [2-grams] 
Accuracy: 0.87875
             precision    recall  f1-score   support

  deceptive      0.877     0.881     0.879       800
   truthful      0.881     0.876     0.878       800

avg / total      0.879     0.879     0.879      1600


Model: sgd
Five-fold cross-validation all polarity
Features: [2-grams] 
Features: [2-grams] 
Features: [2-grams] 
Features: [2-grams] 
Features: [2-grams] 
Accuracy: 0.8925
             precision    recall  f1-score   support

  deceptive      0.897     0.886     0.892       800
   truthful      0.888     0.899     0.893       800

avg / total      0.893     0.892     0.892      1600


Model: linear_svm
Five-fold cross-validation all polarity
Features: [2-grams] 
Features: [2-grams] 
Features: [2-grams] 
Features: [2-grams] 
Features: [2-grams] 
Accuracy: 0.899375
             precision    recall  f1-score   support

  deceptive      0.898     0.901     0.900       800
   truthful      0.901     0.897     0.899       800

avg / total      0.899     0.899     0.899      1600

################################ Trigrams ################################

Model: svm
Five-fold cross-validation all polarity
Features: [3-grams] 
Features: [3-grams] 
Features: [3-grams] 
Features: [3-grams] 
Features: [3-grams] 
Accuracy: 0.825625
             precision    recall  f1-score   support

  deceptive      0.870     0.766     0.815       800
   truthful      0.791     0.885     0.835       800

avg / total      0.830     0.826     0.825      1600


Model: nb
Five-fold cross-validation all polarity
Features: [3-grams] 
Features: [3-grams] 
Features: [3-grams] 
Features: [3-grams] 
Features: [3-grams] 
Accuracy: 0.87875
             precision    recall  f1-score   support

  deceptive      0.833     0.948     0.887       800
   truthful      0.939     0.810     0.870       800

avg / total      0.886     0.879     0.878      1600


Model: random_forest
Five-fold cross-validation all polarity
Features: [3-grams] 
Features: [3-grams] 
Features: [3-grams] 
Features: [3-grams] 
Features: [3-grams] 
Accuracy: 0.840625
             precision    recall  f1-score   support

  deceptive      0.782     0.944     0.856       800
   truthful      0.929     0.738     0.822       800

avg / total      0.856     0.841     0.839      1600


Model: logit
Five-fold cross-validation all polarity
Features: [3-grams] 
Features: [3-grams] 
Features: [3-grams] 
Features: [3-grams] 
Features: [3-grams] 
Accuracy: 0.879375
             precision    recall  f1-score   support

  deceptive      0.858     0.909     0.883       800
   truthful      0.903     0.850     0.876       800

avg / total      0.881     0.879     0.879      1600


Model: mlp
Five-fold cross-validation all polarity
Features: [3-grams] 
Features: [3-grams] 
Features: [3-grams] 
Features: [3-grams] 
Features: [3-grams] 
Accuracy: 0.875
             precision    recall  f1-score   support

  deceptive      0.860     0.896     0.878       800
   truthful      0.892     0.854     0.872       800

avg / total      0.876     0.875     0.875      1600


Model: sgd
Five-fold cross-validation all polarity
Features: [3-grams] 
Features: [3-grams] 
Features: [3-grams] 
Features: [3-grams] 
Features: [3-grams] 
Accuracy: 0.891875
             precision    recall  f1-score   support

  deceptive      0.886     0.900     0.893       800
   truthful      0.898     0.884     0.891       800

avg / total      0.892     0.892     0.892      1600


Model: linear_svm
Five-fold cross-validation all polarity
Features: [3-grams] 
Features: [3-grams] 
Features: [3-grams] 
Features: [3-grams] 
Features: [3-grams] 
Accuracy: 0.890625
             precision    recall  f1-score   support

  deceptive      0.876     0.910     0.893       800
   truthful      0.906     0.871     0.888       800

avg / total      0.891     0.891     0.891      1600

################################ Unigrams + LIWC ################################

Model: svm
Five-fold cross-validation all polarity
Features: [1-grams] [LIWC] 
Features: [1-grams] [LIWC] 
Features: [1-grams] [LIWC] 
Features: [1-grams] [LIWC] 
Features: [1-grams] [LIWC] 
Accuracy: 0.710625
             precision    recall  f1-score   support

  deceptive      0.736     0.656     0.694       800
   truthful      0.690     0.765     0.726       800

avg / total      0.713     0.711     0.710      1600


Model: nb
Five-fold cross-validation all polarity
Features: [1-grams] [LIWC] 
Features: [1-grams] [LIWC] 
Features: [1-grams] [LIWC] 
Features: [1-grams] [LIWC] 
Features: [1-grams] [LIWC] 
Accuracy: 0.854375
             precision    recall  f1-score   support

  deceptive      0.851     0.859     0.855       800
   truthful      0.858     0.850     0.854       800

avg / total      0.854     0.854     0.854      1600


Model: random_forest
Five-fold cross-validation all polarity
Features: [1-grams] [LIWC] 
Features: [1-grams] [LIWC] 
Features: [1-grams] [LIWC] 
Features: [1-grams] [LIWC] 
Features: [1-grams] [LIWC] 
Accuracy: 0.85125
             precision    recall  f1-score   support

  deceptive      0.844     0.863     0.853       800
   truthful      0.859     0.840     0.850       800

avg / total      0.851     0.851     0.851      1600


Model: logit
Five-fold cross-validation all polarity
Features: [1-grams] [LIWC] 
Features: [1-grams] [LIWC] 
Features: [1-grams] [LIWC] 
Features: [1-grams] [LIWC] 
Features: [1-grams] [LIWC] 
Accuracy: 0.84375
             precision    recall  f1-score   support

  deceptive      0.850     0.835     0.842       800
   truthful      0.838     0.853     0.845       800

avg / total      0.844     0.844     0.844      1600


Model: mlp
Five-fold cross-validation all polarity
Features: [1-grams] [LIWC] 
Features: [1-grams] [LIWC] 
Features: [1-grams] [LIWC] 
Features: [1-grams] [LIWC] 
Features: [1-grams] [LIWC] 
Accuracy: 0.869375
             precision    recall  f1-score   support

  deceptive      0.874     0.864     0.869       800
   truthful      0.865     0.875     0.870       800

avg / total      0.869     0.869     0.869      1600


Model: sgd
Five-fold cross-validation all polarity
Features: [1-grams] [LIWC] 
Features: [1-grams] [LIWC] 
Features: [1-grams] [LIWC] 
Features: [1-grams] [LIWC] 
Features: [1-grams] [LIWC] 
Accuracy: 0.865
             precision    recall  f1-score   support

  deceptive      0.902     0.819     0.858       800
   truthful      0.834     0.911     0.871       800

avg / total      0.868     0.865     0.865      1600


Model: linear_svm
Five-fold cross-validation all polarity
Features: [1-grams] [LIWC] 
Features: [1-grams] [LIWC] 
Features: [1-grams] [LIWC] 
Features: [1-grams] [LIWC] 
Features: [1-grams] [LIWC] 
Accuracy: 0.87375
             precision    recall  f1-score   support

  deceptive      0.878     0.868     0.873       800
   truthful      0.869     0.880     0.875       800

avg / total      0.874     0.874     0.874      1600

################################ Bigrams + LIWC ################################

Model: svm
Five-fold cross-validation all polarity
Features: [2-grams] [LIWC] 
Features: [2-grams] [LIWC] 
Features: [2-grams] [LIWC] 
Features: [2-grams] [LIWC] 
Features: [2-grams] [LIWC] 
Accuracy: 0.710625
             precision    recall  f1-score   support

  deceptive      0.684     0.782     0.730       800
   truthful      0.746     0.639     0.688       800

avg / total      0.715     0.711     0.709      1600


Model: nb
Five-fold cross-validation all polarity
Features: [2-grams] [LIWC] 
Features: [2-grams] [LIWC] 
Features: [2-grams] [LIWC] 
Features: [2-grams] [LIWC] 
Features: [2-grams] [LIWC] 
Accuracy: 0.88
             precision    recall  f1-score   support

  deceptive      0.837     0.944     0.887       800
   truthful      0.936     0.816     0.872       800

avg / total      0.886     0.880     0.880      1600


Model: random_forest
Five-fold cross-validation all polarity
Features: [2-grams] [LIWC] 
Features: [2-grams] [LIWC] 
Features: [2-grams] [LIWC] 
Features: [2-grams] [LIWC] 
Features: [2-grams] [LIWC] 
Accuracy: 0.85375
             precision    recall  f1-score   support

  deceptive      0.828     0.892     0.859       800
   truthful      0.883     0.815     0.848       800

avg / total      0.856     0.854     0.854      1600


Model: logit
Five-fold cross-validation all polarity
Features: [2-grams] [LIWC] 
Features: [2-grams] [LIWC] 
Features: [2-grams] [LIWC] 
Features: [2-grams] [LIWC] 
Features: [2-grams] [LIWC] 
Accuracy: 0.8575
             precision    recall  f1-score   support

  deceptive      0.852     0.865     0.859       800
   truthful      0.863     0.850     0.856       800

avg / total      0.858     0.858     0.857      1600


Model: mlp
Five-fold cross-validation all polarity
Features: [2-grams] [LIWC] 
Features: [2-grams] [LIWC] 
Features: [2-grams] [LIWC] 
Features: [2-grams] [LIWC] 
Features: [2-grams] [LIWC] 
Accuracy: 0.885625
             precision    recall  f1-score   support

  deceptive      0.875     0.900     0.887       800
   truthful      0.897     0.871     0.884       800

avg / total      0.886     0.886     0.886      1600


Model: sgd
Five-fold cross-validation all polarity
Features: [2-grams] [LIWC] 
Features: [2-grams] [LIWC] 
Features: [2-grams] [LIWC] 
Features: [2-grams] [LIWC] 
Features: [2-grams] [LIWC] 
Accuracy: 0.8825
             precision    recall  f1-score   support

  deceptive      0.901     0.860     0.880       800
   truthful      0.866     0.905     0.885       800

avg / total      0.883     0.882     0.882      1600


Model: linear_svm
Five-fold cross-validation all polarity
Features: [2-grams] [LIWC] 
Features: [2-grams] [LIWC] 
Features: [2-grams] [LIWC] 
Features: [2-grams] [LIWC] 
Features: [2-grams] [LIWC] 
Accuracy: 0.890625
             precision    recall  f1-score   support

  deceptive      0.891     0.890     0.891       800
   truthful      0.890     0.891     0.891       800

avg / total      0.891     0.891     0.891      1600

################################ Unigrams + POS ################################

Model: svm
Five-fold cross-validation all polarity
Features: [1-grams] [1-POS detailed: True] 
Features: [1-grams] [1-POS detailed: True] 
Features: [1-grams] [1-POS detailed: True] 
Features: [1-grams] [1-POS detailed: True] 
Features: [1-grams] [1-POS detailed: True] 
Accuracy: 0.7575
             precision    recall  f1-score   support

  deceptive      0.759     0.754     0.757       800
   truthful      0.756     0.761     0.758       800

avg / total      0.758     0.757     0.757      1600


Model: nb
Five-fold cross-validation all polarity
Features: [1-grams] [1-POS detailed: True] 
Features: [1-grams] [1-POS detailed: True] 
Features: [1-grams] [1-POS detailed: True] 
Features: [1-grams] [1-POS detailed: True] 
Features: [1-grams] [1-POS detailed: True] 
Accuracy: 0.850625
             precision    recall  f1-score   support

  deceptive      0.853     0.848     0.850       800
   truthful      0.848     0.854     0.851       800

avg / total      0.851     0.851     0.851      1600


Model: random_forest
Five-fold cross-validation all polarity
Features: [1-grams] [1-POS detailed: True] 
Features: [1-grams] [1-POS detailed: True] 
Features: [1-grams] [1-POS detailed: True] 
Features: [1-grams] [1-POS detailed: True] 
Features: [1-grams] [1-POS detailed: True] 
Accuracy: 0.84875
             precision    recall  f1-score   support

  deceptive      0.835     0.869     0.852       800
   truthful      0.863     0.829     0.846       800

avg / total      0.849     0.849     0.849      1600


Model: logit
Five-fold cross-validation all polarity
Features: [1-grams] [1-POS detailed: True] 
Features: [1-grams] [1-POS detailed: True] 
Features: [1-grams] [1-POS detailed: True] 
Features: [1-grams] [1-POS detailed: True] 
Features: [1-grams] [1-POS detailed: True] 
Accuracy: 0.860625
             precision    recall  f1-score   support

  deceptive      0.859     0.863     0.861       800
   truthful      0.862     0.859     0.860       800

avg / total      0.861     0.861     0.861      1600


Model: mlp
Five-fold cross-validation all polarity
Features: [1-grams] [1-POS detailed: True] 
Features: [1-grams] [1-POS detailed: True] 
Features: [1-grams] [1-POS detailed: True] 
Features: [1-grams] [1-POS detailed: True] 
Features: [1-grams] [1-POS detailed: True] 
Accuracy: 0.868125
             precision    recall  f1-score   support

  deceptive      0.865     0.873     0.869       800
   truthful      0.871     0.864     0.868       800

avg / total      0.868     0.868     0.868      1600


Model: sgd
Five-fold cross-validation all polarity
Features: [1-grams] [1-POS detailed: True] 
Features: [1-grams] [1-POS detailed: True] 
Features: [1-grams] [1-POS detailed: True] 
Features: [1-grams] [1-POS detailed: True] 
Features: [1-grams] [1-POS detailed: True] 
Accuracy: 0.87125
             precision    recall  f1-score   support

  deceptive      0.897     0.839     0.867       800
   truthful      0.849     0.904     0.875       800

avg / total      0.873     0.871     0.871      1600


Model: linear_svm
Five-fold cross-validation all polarity
Features: [1-grams] [1-POS detailed: True] 
Features: [1-grams] [1-POS detailed: True] 
Features: [1-grams] [1-POS detailed: True] 
Features: [1-grams] [1-POS detailed: True] 
Features: [1-grams] [1-POS detailed: True] 
Accuracy: 0.88
             precision    recall  f1-score   support

  deceptive      0.884     0.875     0.879       800
   truthful      0.876     0.885     0.881       800

avg / total      0.880     0.880     0.880      1600

################################ Bigrams + POS ################################

Model: svm
Five-fold cross-validation all polarity
Features: [2-grams] [1-POS detailed: True] 
Features: [2-grams] [1-POS detailed: True] 
Features: [2-grams] [1-POS detailed: True] 
Features: [2-grams] [1-POS detailed: True] 
Features: [2-grams] [1-POS detailed: True] 
Accuracy: 0.77125
             precision    recall  f1-score   support

  deceptive      0.801     0.723     0.760       800
   truthful      0.747     0.820     0.782       800

avg / total      0.774     0.771     0.771      1600


Model: nb
Five-fold cross-validation all polarity
Features: [2-grams] [1-POS detailed: True] 
Features: [2-grams] [1-POS detailed: True] 
Features: [2-grams] [1-POS detailed: True] 
Features: [2-grams] [1-POS detailed: True] 
Features: [2-grams] [1-POS detailed: True] 
Accuracy: 0.88375
             precision    recall  f1-score   support

  deceptive      0.850     0.931     0.889       800
   truthful      0.924     0.836     0.878       800

avg / total      0.887     0.884     0.883      1600


Model: random_forest
Five-fold cross-validation all polarity
Features: [2-grams] [1-POS detailed: True] 
Features: [2-grams] [1-POS detailed: True] 
Features: [2-grams] [1-POS detailed: True] 
Features: [2-grams] [1-POS detailed: True] 
Features: [2-grams] [1-POS detailed: True] 
Accuracy: 0.8475
             precision    recall  f1-score   support

  deceptive      0.820     0.890     0.854       800
   truthful      0.880     0.805     0.841       800

avg / total      0.850     0.848     0.847      1600


Model: logit
Five-fold cross-validation all polarity
Features: [2-grams] [1-POS detailed: True] 
Features: [2-grams] [1-POS detailed: True] 
Features: [2-grams] [1-POS detailed: True] 
Features: [2-grams] [1-POS detailed: True] 
Features: [2-grams] [1-POS detailed: True] 
Accuracy: 0.861875
             precision    recall  f1-score   support

  deceptive      0.861     0.864     0.862       800
   truthful      0.863     0.860     0.862       800

avg / total      0.862     0.862     0.862      1600


Model: mlp
Five-fold cross-validation all polarity
Features: [2-grams] [1-POS detailed: True] 
Features: [2-grams] [1-POS detailed: True] 
Features: [2-grams] [1-POS detailed: True] 
Features: [2-grams] [1-POS detailed: True] 
Features: [2-grams] [1-POS detailed: True] 
Accuracy: 0.88
             precision    recall  f1-score   support

  deceptive      0.873     0.889     0.881       800
   truthful      0.887     0.871     0.879       800

avg / total      0.880     0.880     0.880      1600


Model: sgd
Five-fold cross-validation all polarity
Features: [2-grams] [1-POS detailed: True] 
Features: [2-grams] [1-POS detailed: True] 
Features: [2-grams] [1-POS detailed: True] 
Features: [2-grams] [1-POS detailed: True] 
Features: [2-grams] [1-POS detailed: True] 
Accuracy: 0.875625
             precision    recall  f1-score   support

  deceptive      0.898     0.848     0.872       800
   truthful      0.856     0.904     0.879       800

avg / total      0.877     0.876     0.876      1600


Model: linear_svm
Five-fold cross-validation all polarity
Features: [2-grams] [1-POS detailed: True] 
Features: [2-grams] [1-POS detailed: True] 
Features: [2-grams] [1-POS detailed: True] 
Features: [2-grams] [1-POS detailed: True] 
Features: [2-grams] [1-POS detailed: True] 
Accuracy: 0.89
             precision    recall  f1-score   support

  deceptive      0.891     0.889     0.890       800
   truthful      0.889     0.891     0.890       800

avg / total      0.890     0.890     0.890      1600

################################ Unigrams + BIPOS ################################

Model: svm
Five-fold cross-validation all polarity
Features: [1-grams] [2-POS detailed: False] 
Features: [1-grams] [2-POS detailed: False] 
Features: [1-grams] [2-POS detailed: False] 
Features: [1-grams] [2-POS detailed: False] 
Features: [1-grams] [2-POS detailed: False] 
Accuracy: 0.775
             precision    recall  f1-score   support

  deceptive      0.759     0.806     0.782       800
   truthful      0.793     0.744     0.768       800

avg / total      0.776     0.775     0.775      1600


Model: nb
Five-fold cross-validation all polarity
Features: [1-grams] [2-POS detailed: False] 
Features: [1-grams] [2-POS detailed: False] 
Features: [1-grams] [2-POS detailed: False] 
Features: [1-grams] [2-POS detailed: False] 
Features: [1-grams] [2-POS detailed: False] 
Accuracy: 0.850625
             precision    recall  f1-score   support

  deceptive      0.858     0.840     0.849       800
   truthful      0.843     0.861     0.852       800

avg / total      0.851     0.851     0.851      1600


Model: random_forest
Five-fold cross-validation all polarity
Features: [1-grams] [2-POS detailed: False] 
Features: [1-grams] [2-POS detailed: False] 
Features: [1-grams] [2-POS detailed: False] 
Features: [1-grams] [2-POS detailed: False] 
Features: [1-grams] [2-POS detailed: False] 
Accuracy: 0.845625
             precision    recall  f1-score   support

  deceptive      0.833     0.865     0.849       800
   truthful      0.860     0.826     0.843       800

avg / total      0.846     0.846     0.846      1600


Model: logit
Five-fold cross-validation all polarity
Features: [1-grams] [2-POS detailed: False] 
Features: [1-grams] [2-POS detailed: False] 
Features: [1-grams] [2-POS detailed: False] 
Features: [1-grams] [2-POS detailed: False] 
Features: [1-grams] [2-POS detailed: False] 
Accuracy: 0.866875
             precision    recall  f1-score   support

  deceptive      0.862     0.874     0.868       800
   truthful      0.872     0.860     0.866       800

avg / total      0.867     0.867     0.867      1600


Model: mlp
Five-fold cross-validation all polarity
Features: [1-grams] [2-POS detailed: False] 
Features: [1-grams] [2-POS detailed: False] 
Features: [1-grams] [2-POS detailed: False] 
Features: [1-grams] [2-POS detailed: False] 
Features: [1-grams] [2-POS detailed: False] 
Accuracy: 0.88125
             precision    recall  f1-score   support

  deceptive      0.879     0.884     0.882       800
   truthful      0.883     0.879     0.881       800

avg / total      0.881     0.881     0.881      1600


Model: sgd
Five-fold cross-validation all polarity
Features: [1-grams] [2-POS detailed: False] 
Features: [1-grams] [2-POS detailed: False] 
Features: [1-grams] [2-POS detailed: False] 
Features: [1-grams] [2-POS detailed: False] 
Features: [1-grams] [2-POS detailed: False] 
Accuracy: 0.87625
             precision    recall  f1-score   support

  deceptive      0.896     0.851     0.873       800
   truthful      0.858     0.901     0.879       800

avg / total      0.877     0.876     0.876      1600


Model: linear_svm
Five-fold cross-validation all polarity
Features: [1-grams] [2-POS detailed: False] 
Features: [1-grams] [2-POS detailed: False] 
Features: [1-grams] [2-POS detailed: False] 
Features: [1-grams] [2-POS detailed: False] 
Features: [1-grams] [2-POS detailed: False] 
Accuracy: 0.8825
             precision    recall  f1-score   support

  deceptive      0.883     0.881     0.882       800
   truthful      0.882     0.884     0.883       800

avg / total      0.883     0.882     0.882      1600

################################ Unigrams + BIPOS+ ################################

Model: svm
Five-fold cross-validation all polarity
Features: [1-grams] [2+-POS detailed: False] 
Features: [1-grams] [2+-POS detailed: False] 
Features: [1-grams] [2+-POS detailed: False] 
Features: [1-grams] [2+-POS detailed: False] 
Features: [1-grams] [2+-POS detailed: False] 
Accuracy: 0.69875
             precision    recall  f1-score   support

  deceptive      0.644     0.891     0.747       800
   truthful      0.823     0.506     0.627       800

avg / total      0.733     0.699     0.687      1600


Model: nb
Five-fold cross-validation all polarity
Features: [1-grams] [2+-POS detailed: False] 
Features: [1-grams] [2+-POS detailed: False] 
Features: [1-grams] [2+-POS detailed: False] 
Features: [1-grams] [2+-POS detailed: False] 
Features: [1-grams] [2+-POS detailed: False] 
Accuracy: 0.8525
             precision    recall  f1-score   support

  deceptive      0.848     0.859     0.853       800
   truthful      0.857     0.846     0.852       800

avg / total      0.853     0.853     0.852      1600


Model: random_forest
Five-fold cross-validation all polarity
Features: [1-grams] [2+-POS detailed: False] 
Features: [1-grams] [2+-POS detailed: False] 
Features: [1-grams] [2+-POS detailed: False] 
Features: [1-grams] [2+-POS detailed: False] 
Features: [1-grams] [2+-POS detailed: False] 
Accuracy: 0.8275
             precision    recall  f1-score   support

  deceptive      0.810     0.856     0.832       800
   truthful      0.847     0.799     0.822       800

avg / total      0.829     0.828     0.827      1600


Model: logit
Five-fold cross-validation all polarity
Features: [1-grams] [2+-POS detailed: False] 
Features: [1-grams] [2+-POS detailed: False] 
Features: [1-grams] [2+-POS detailed: False] 
Features: [1-grams] [2+-POS detailed: False] 
Features: [1-grams] [2+-POS detailed: False] 
Accuracy: 0.84625
             precision    recall  f1-score   support

  deceptive      0.845     0.849     0.847       800
   truthful      0.848     0.844     0.846       800

avg / total      0.846     0.846     0.846      1600


Model: mlp
Five-fold cross-validation all polarity
Features: [1-grams] [2+-POS detailed: False] 
Features: [1-grams] [2+-POS detailed: False] 
Features: [1-grams] [2+-POS detailed: False] 
Features: [1-grams] [2+-POS detailed: False] 
Features: [1-grams] [2+-POS detailed: False] 
Accuracy: 0.875625
             precision    recall  f1-score   support

  deceptive      0.875     0.876     0.876       800
   truthful      0.876     0.875     0.876       800

avg / total      0.876     0.876     0.876      1600


Model: sgd
Five-fold cross-validation all polarity
Features: [1-grams] [2+-POS detailed: False] 
Features: [1-grams] [2+-POS detailed: False] 
Features: [1-grams] [2+-POS detailed: False] 
Features: [1-grams] [2+-POS detailed: False] 
Features: [1-grams] [2+-POS detailed: False] 
Accuracy: 0.863125
             precision    recall  f1-score   support

  deceptive      0.905     0.811     0.856       800
   truthful      0.829     0.915     0.870       800

avg / total      0.867     0.863     0.863      1600


Model: linear_svm
Five-fold cross-validation all polarity
Features: [1-grams] [2+-POS detailed: False] 
Features: [1-grams] [2+-POS detailed: False] 
Features: [1-grams] [2+-POS detailed: False] 
Features: [1-grams] [2+-POS detailed: False] 
Features: [1-grams] [2+-POS detailed: False] 
Accuracy: 0.87875
             precision    recall  f1-score   support

  deceptive      0.876     0.882     0.879       800
   truthful      0.882     0.875     0.878       800

avg / total      0.879     0.879     0.879      1600

################################ Bigrams + BIPOS ################################

Model: svm
Five-fold cross-validation all polarity
Features: [2-grams] [2-POS detailed: False] 
Features: [2-grams] [2-POS detailed: False] 
Features: [2-grams] [2-POS detailed: False] 
Features: [2-grams] [2-POS detailed: False] 
Features: [2-grams] [2-POS detailed: False] 
Accuracy: 0.798125
             precision    recall  f1-score   support

  deceptive      0.818     0.767     0.792       800
   truthful      0.781     0.829     0.804       800

avg / total      0.799     0.798     0.798      1600


Model: nb
Five-fold cross-validation all polarity
Features: [2-grams] [2-POS detailed: False] 
Features: [2-grams] [2-POS detailed: False] 
Features: [2-grams] [2-POS detailed: False] 
Features: [2-grams] [2-POS detailed: False] 
Features: [2-grams] [2-POS detailed: False] 
Accuracy: 0.885625
             precision    recall  f1-score   support

  deceptive      0.853     0.931     0.891       800
   truthful      0.924     0.840     0.880       800

avg / total      0.889     0.886     0.885      1600


Model: random_forest
Five-fold cross-validation all polarity
Features: [2-grams] [2-POS detailed: False] 
Features: [2-grams] [2-POS detailed: False] 
Features: [2-grams] [2-POS detailed: False] 
Features: [2-grams] [2-POS detailed: False] 
Features: [2-grams] [2-POS detailed: False] 
Accuracy: 0.855
             precision    recall  f1-score   support

  deceptive      0.820     0.910     0.863       800
   truthful      0.899     0.800     0.847       800

avg / total      0.859     0.855     0.855      1600


Model: logit
Five-fold cross-validation all polarity
Features: [2-grams] [2-POS detailed: False] 
Features: [2-grams] [2-POS detailed: False] 
Features: [2-grams] [2-POS detailed: False] 
Features: [2-grams] [2-POS detailed: False] 
Features: [2-grams] [2-POS detailed: False] 
Accuracy: 0.86625
             precision    recall  f1-score   support

  deceptive      0.861     0.874     0.867       800
   truthful      0.872     0.859     0.865       800

avg / total      0.866     0.866     0.866      1600


Model: mlp
Five-fold cross-validation all polarity
Features: [2-grams] [2-POS detailed: False] 
Features: [2-grams] [2-POS detailed: False] 
Features: [2-grams] [2-POS detailed: False] 
Features: [2-grams] [2-POS detailed: False] 
Features: [2-grams] [2-POS detailed: False] 
Accuracy: 0.880625
             precision    recall  f1-score   support

  deceptive      0.866     0.900     0.883       800
   truthful      0.896     0.861     0.878       800

avg / total      0.881     0.881     0.881      1600


Model: sgd
Five-fold cross-validation all polarity
Features: [2-grams] [2-POS detailed: False] 
Features: [2-grams] [2-POS detailed: False] 
Features: [2-grams] [2-POS detailed: False] 
Features: [2-grams] [2-POS detailed: False] 
Features: [2-grams] [2-POS detailed: False] 
Accuracy: 0.880625
             precision    recall  f1-score   support

  deceptive      0.895     0.863     0.878       800
   truthful      0.867     0.899     0.883       800

avg / total      0.881     0.881     0.881      1600


Model: linear_svm
Five-fold cross-validation all polarity
Features: [2-grams] [2-POS detailed: False] 
Features: [2-grams] [2-POS detailed: False] 
Features: [2-grams] [2-POS detailed: False] 
Features: [2-grams] [2-POS detailed: False] 
Features: [2-grams] [2-POS detailed: False] 
Accuracy: 0.889375
             precision    recall  f1-score   support

  deceptive      0.888     0.891     0.890       800
   truthful      0.891     0.887     0.889       800

avg / total      0.889     0.889     0.889      1600

################################ Bigrams + BIPOS+ ################################

Model: svm
Five-fold cross-validation all polarity
Features: [2-grams] [2+-POS detailed: True] 
Features: [2-grams] [2+-POS detailed: True] 
Features: [2-grams] [2+-POS detailed: True] 
Features: [2-grams] [2+-POS detailed: True] 
Features: [2-grams] [2+-POS detailed: True] 
Accuracy: 0.766875
             precision    recall  f1-score   support

  deceptive      0.760     0.780     0.770       800
   truthful      0.774     0.754     0.764       800

avg / total      0.767     0.767     0.767      1600


Model: nb
Five-fold cross-validation all polarity
Features: [2-grams] [2+-POS detailed: True] 
Features: [2-grams] [2+-POS detailed: True] 
Features: [2-grams] [2+-POS detailed: True] 
Features: [2-grams] [2+-POS detailed: True] 
Features: [2-grams] [2+-POS detailed: True] 
Accuracy: 0.88625
             precision    recall  f1-score   support

  deceptive      0.854     0.932     0.891       800
   truthful      0.926     0.840     0.881       800

avg / total      0.890     0.886     0.886      1600


Model: random_forest
Five-fold cross-validation all polarity
Features: [2-grams] [2+-POS detailed: True] 
Features: [2-grams] [2+-POS detailed: True] 
Features: [2-grams] [2+-POS detailed: True] 
Features: [2-grams] [2+-POS detailed: True] 
Features: [2-grams] [2+-POS detailed: True] 
Accuracy: 0.83625
             precision    recall  f1-score   support

  deceptive      0.806     0.886     0.844       800
   truthful      0.874     0.786     0.828       800

avg / total      0.840     0.836     0.836      1600


Model: logit
Five-fold cross-validation all polarity
Features: [2-grams] [2+-POS detailed: True] 
Features: [2-grams] [2+-POS detailed: True] 
Features: [2-grams] [2+-POS detailed: True] 
Features: [2-grams] [2+-POS detailed: True] 
Features: [2-grams] [2+-POS detailed: True] 
Accuracy: 0.861875
             precision    recall  f1-score   support

  deceptive      0.859     0.866     0.862       800
   truthful      0.865     0.858     0.861       800

avg / total      0.862     0.862     0.862      1600


Model: mlp
Five-fold cross-validation all polarity
Features: [2-grams] [2+-POS detailed: True] 
Features: [2-grams] [2+-POS detailed: True] 
Features: [2-grams] [2+-POS detailed: True] 
Features: [2-grams] [2+-POS detailed: True] 
Features: [2-grams] [2+-POS detailed: True] 
Accuracy: 0.879375
             precision    recall  f1-score   support

  deceptive      0.863     0.901     0.882       800
   truthful      0.897     0.858     0.877       800

avg / total      0.880     0.879     0.879      1600


Model: sgd
Five-fold cross-validation all polarity
Features: [2-grams] [2+-POS detailed: True] 
Features: [2-grams] [2+-POS detailed: True] 
Features: [2-grams] [2+-POS detailed: True] 
Features: [2-grams] [2+-POS detailed: True] 
Features: [2-grams] [2+-POS detailed: True] 
Accuracy: 0.87625
             precision    recall  f1-score   support

  deceptive      0.894     0.854     0.873       800
   truthful      0.860     0.899     0.879       800

avg / total      0.877     0.876     0.876      1600


Model: linear_svm
Five-fold cross-validation all polarity
Features: [2-grams] [2+-POS detailed: True] 
Features: [2-grams] [2+-POS detailed: True] 
Features: [2-grams] [2+-POS detailed: True] 
Features: [2-grams] [2+-POS detailed: True] 
Features: [2-grams] [2+-POS detailed: True] 
Accuracy: 0.886875
             precision    recall  f1-score   support

  deceptive      0.884     0.891     0.887       800
   truthful      0.890     0.882     0.886       800

avg / total      0.887     0.887     0.887      1600

################################ Unigrams + DEP ################################

Model: svm
Five-fold cross-validation all polarity
Features: [1-grams] [DEP] 
Features: [1-grams] [DEP] 
Features: [1-grams] [DEP] 
Features: [1-grams] [DEP] 
Features: [1-grams] [DEP] 
Accuracy: 0.7575
             precision    recall  f1-score   support

  deceptive      0.702     0.895     0.787       800
   truthful      0.855     0.620     0.719       800

avg / total      0.779     0.757     0.753      1600


Model: nb
Five-fold cross-validation all polarity
Features: [1-grams] [DEP] 
Features: [1-grams] [DEP] 
Features: [1-grams] [DEP] 
Features: [1-grams] [DEP] 
Features: [1-grams] [DEP] 
Accuracy: 0.849375
             precision    recall  f1-score   support

  deceptive      0.856     0.840     0.848       800
   truthful      0.843     0.859     0.851       800

avg / total      0.849     0.849     0.849      1600


Model: random_forest
Five-fold cross-validation all polarity
Features: [1-grams] [DEP] 
Features: [1-grams] [DEP] 
Features: [1-grams] [DEP] 
Features: [1-grams] [DEP] 
Features: [1-grams] [DEP] 
Accuracy: 0.849375
             precision    recall  f1-score   support

  deceptive      0.836     0.869     0.852       800
   truthful      0.863     0.830     0.846       800

avg / total      0.850     0.849     0.849      1600


Model: logit
Five-fold cross-validation all polarity
Features: [1-grams] [DEP] 
Features: [1-grams] [DEP] 
Features: [1-grams] [DEP] 
Features: [1-grams] [DEP] 
Features: [1-grams] [DEP] 
Accuracy: 0.859375
             precision    recall  f1-score   support

  deceptive      0.860     0.859     0.859       800
   truthful      0.859     0.860     0.859       800

avg / total      0.859     0.859     0.859      1600


Model: mlp
Five-fold cross-validation all polarity
Features: [1-grams] [DEP] 
Features: [1-grams] [DEP] 
Features: [1-grams] [DEP] 
Features: [1-grams] [DEP] 
Features: [1-grams] [DEP] 
Accuracy: 0.875625
             precision    recall  f1-score   support

  deceptive      0.880     0.870     0.875       800
   truthful      0.871     0.881     0.876       800

avg / total      0.876     0.876     0.876      1600


Model: sgd
Five-fold cross-validation all polarity
Features: [1-grams] [DEP] 
Features: [1-grams] [DEP] 
Features: [1-grams] [DEP] 
Features: [1-grams] [DEP] 
Features: [1-grams] [DEP] 
Accuracy: 0.87125
             precision    recall  f1-score   support

  deceptive      0.883     0.856     0.869       800
   truthful      0.860     0.886     0.873       800

avg / total      0.872     0.871     0.871      1600


Model: linear_svm
Five-fold cross-validation all polarity
Features: [1-grams] [DEP] 
Features: [1-grams] [DEP] 
Features: [1-grams] [DEP] 
Features: [1-grams] [DEP] 
Features: [1-grams] [DEP] 
Accuracy: 0.88375
             precision    recall  f1-score   support

  deceptive      0.888     0.879     0.883       800
   truthful      0.880     0.889     0.884       800

avg / total      0.884     0.884     0.884      1600

################################ Bigrams + DEP ################################

Model: svm
Five-fold cross-validation all polarity
Features: [2-grams] [DEP] 
Features: [2-grams] [DEP] 
Features: [2-grams] [DEP] 
Features: [2-grams] [DEP] 
Features: [2-grams] [DEP] 
Accuracy: 0.8025
             precision    recall  f1-score   support

  deceptive      0.789     0.825     0.807       800
   truthful      0.817     0.780     0.798       800

avg / total      0.803     0.802     0.802      1600


Model: nb
Five-fold cross-validation all polarity
Features: [2-grams] [DEP] 
Features: [2-grams] [DEP] 
Features: [2-grams] [DEP] 
Features: [2-grams] [DEP] 
Features: [2-grams] [DEP] 
Accuracy: 0.880625
             precision    recall  f1-score   support

  deceptive      0.846     0.931     0.886       800
   truthful      0.924     0.830     0.874       800

avg / total      0.885     0.881     0.880      1600


Model: random_forest
Five-fold cross-validation all polarity
Features: [2-grams] [DEP] 
Features: [2-grams] [DEP] 
Features: [2-grams] [DEP] 
Features: [2-grams] [DEP] 
Features: [2-grams] [DEP] 
Accuracy: 0.85375
             precision    recall  f1-score   support

  deceptive      0.825     0.897     0.860       800
   truthful      0.888     0.810     0.847       800

avg / total      0.856     0.854     0.853      1600


Model: logit
Five-fold cross-validation all polarity
Features: [2-grams] [DEP] 
Features: [2-grams] [DEP] 
Features: [2-grams] [DEP] 
Features: [2-grams] [DEP] 
Features: [2-grams] [DEP] 
Accuracy: 0.865625
             precision    recall  f1-score   support

  deceptive      0.864     0.868     0.866       800
   truthful      0.867     0.864     0.865       800

avg / total      0.866     0.866     0.866      1600


Model: mlp
Five-fold cross-validation all polarity
Features: [2-grams] [DEP] 
Features: [2-grams] [DEP] 
Features: [2-grams] [DEP] 
Features: [2-grams] [DEP] 
Features: [2-grams] [DEP] 
Accuracy: 0.883125
             precision    recall  f1-score   support

  deceptive      0.877     0.891     0.884       800
   truthful      0.889     0.875     0.882       800

avg / total      0.883     0.883     0.883      1600


Model: sgd
Five-fold cross-validation all polarity
Features: [2-grams] [DEP] 
Features: [2-grams] [DEP] 
Features: [2-grams] [DEP] 
Features: [2-grams] [DEP] 
Features: [2-grams] [DEP] 
Accuracy: 0.875625
             precision    recall  f1-score   support

  deceptive      0.889     0.859     0.873       800
   truthful      0.863     0.892     0.878       800

avg / total      0.876     0.876     0.876      1600


Model: linear_svm
Five-fold cross-validation all polarity
Features: [2-grams] [DEP] 
Features: [2-grams] [DEP] 
Features: [2-grams] [DEP] 
Features: [2-grams] [DEP] 
Features: [2-grams] [DEP] 
Accuracy: 0.886875
             precision    recall  f1-score   support

  deceptive      0.888     0.885     0.887       800
   truthful      0.885     0.889     0.887       800

avg / total      0.887     0.887     0.887      1600

################################ Bigrams + BIPOS+ + DEP ################################

Model: svm
Five-fold cross-validation all polarity
Features: [2-grams] [2+-POS detailed: True] [DEP] 
Features: [2-grams] [2+-POS detailed: True] [DEP] 
Features: [2-grams] [2+-POS detailed: True] [DEP] 
Features: [2-grams] [2+-POS detailed: True] [DEP] 
Features: [2-grams] [2+-POS detailed: True] [DEP] 
Accuracy: 0.755625
             precision    recall  f1-score   support

  deceptive      0.727     0.818     0.770       800
   truthful      0.792     0.694     0.740       800

avg / total      0.760     0.756     0.755      1600


Model: nb
Five-fold cross-validation all polarity
Features: [2-grams] [2+-POS detailed: True] [DEP] 
Features: [2-grams] [2+-POS detailed: True] [DEP] 
Features: [2-grams] [2+-POS detailed: True] [DEP] 
Features: [2-grams] [2+-POS detailed: True] [DEP] 
Features: [2-grams] [2+-POS detailed: True] [DEP] 
Accuracy: 0.88375
             precision    recall  f1-score   support

  deceptive      0.846     0.939     0.890       800
   truthful      0.931     0.829     0.877       800

avg / total      0.888     0.884     0.883      1600


Model: random_forest
Five-fold cross-validation all polarity
Features: [2-grams] [2+-POS detailed: True] [DEP] 
Features: [2-grams] [2+-POS detailed: True] [DEP] 
Features: [2-grams] [2+-POS detailed: True] [DEP] 
Features: [2-grams] [2+-POS detailed: True] [DEP] 
Features: [2-grams] [2+-POS detailed: True] [DEP] 
Accuracy: 0.83125
             precision    recall  f1-score   support

  deceptive      0.803     0.877     0.839       800
   truthful      0.865     0.785     0.823       800

avg / total      0.834     0.831     0.831      1600


Model: logit
Five-fold cross-validation all polarity
Features: [2-grams] [2+-POS detailed: True] [DEP] 
Features: [2-grams] [2+-POS detailed: True] [DEP] 
Features: [2-grams] [2+-POS detailed: True] [DEP] 
Features: [2-grams] [2+-POS detailed: True] [DEP] 
Features: [2-grams] [2+-POS detailed: True] [DEP] 
Accuracy: 0.856875
             precision    recall  f1-score   support

  deceptive      0.855     0.860     0.857       800
   truthful      0.859     0.854     0.856       800

avg / total      0.857     0.857     0.857      1600


Model: mlp
Five-fold cross-validation all polarity
Features: [2-grams] [2+-POS detailed: True] [DEP] 
Features: [2-grams] [2+-POS detailed: True] [DEP] 
Features: [2-grams] [2+-POS detailed: True] [DEP] 
Features: [2-grams] [2+-POS detailed: True] [DEP] 
Features: [2-grams] [2+-POS detailed: True] [DEP] 
Accuracy: 0.87375
             precision    recall  f1-score   support

  deceptive      0.861     0.891     0.876       800
   truthful      0.887     0.856     0.872       800

avg / total      0.874     0.874     0.874      1600


Model: sgd
Five-fold cross-validation all polarity
Features: [2-grams] [2+-POS detailed: True] [DEP] 
Features: [2-grams] [2+-POS detailed: True] [DEP] 
Features: [2-grams] [2+-POS detailed: True] [DEP] 
Features: [2-grams] [2+-POS detailed: True] [DEP] 
Features: [2-grams] [2+-POS detailed: True] [DEP] 
Accuracy: 0.87375
             precision    recall  f1-score   support

  deceptive      0.892     0.850     0.871       800
   truthful      0.857     0.897     0.877       800

avg / total      0.875     0.874     0.874      1600


Model: linear_svm
Five-fold cross-validation all polarity
Features: [2-grams] [2+-POS detailed: True] [DEP] 
Features: [2-grams] [2+-POS detailed: True] [DEP] 
Features: [2-grams] [2+-POS detailed: True] [DEP] 
Features: [2-grams] [2+-POS detailed: True] [DEP] 
Features: [2-grams] [2+-POS detailed: True] [DEP] 
Accuracy: 0.88375
             precision    recall  f1-score   support

  deceptive      0.883     0.885     0.884       800
   truthful      0.885     0.882     0.884       800

avg / total      0.884     0.884     0.884      1600

################################ Unigrams + DEP + POS ################################

Model: svm
Five-fold cross-validation all polarity
Features: [1-grams] [1-POS detailed: True] [DEP] 
Features: [1-grams] [1-POS detailed: True] [DEP] 
Features: [1-grams] [1-POS detailed: True] [DEP] 
Features: [1-grams] [1-POS detailed: True] [DEP] 
Features: [1-grams] [1-POS detailed: True] [DEP] 
Accuracy: 0.720625
             precision    recall  f1-score   support

  deceptive      0.667     0.880     0.759       800
   truthful      0.824     0.561     0.668       800

avg / total      0.746     0.721     0.713      1600


Model: nb
Five-fold cross-validation all polarity
Features: [1-grams] [1-POS detailed: True] [DEP] 
Features: [1-grams] [1-POS detailed: True] [DEP] 
Features: [1-grams] [1-POS detailed: True] [DEP] 
Features: [1-grams] [1-POS detailed: True] [DEP] 
Features: [1-grams] [1-POS detailed: True] [DEP] 
Accuracy: 0.851875
             precision    recall  f1-score   support

  deceptive      0.850     0.855     0.852       800
   truthful      0.854     0.849     0.851       800

avg / total      0.852     0.852     0.852      1600


Model: random_forest
Five-fold cross-validation all polarity
Features: [1-grams] [1-POS detailed: True] [DEP] 
Features: [1-grams] [1-POS detailed: True] [DEP] 
Features: [1-grams] [1-POS detailed: True] [DEP] 
Features: [1-grams] [1-POS detailed: True] [DEP] 
Features: [1-grams] [1-POS detailed: True] [DEP] 
Accuracy: 0.8325
             precision    recall  f1-score   support

  deceptive      0.815     0.860     0.837       800
   truthful      0.852     0.805     0.828       800

avg / total      0.834     0.833     0.832      1600


Model: logit
Five-fold cross-validation all polarity
Features: [1-grams] [1-POS detailed: True] [DEP] 
Features: [1-grams] [1-POS detailed: True] [DEP] 
Features: [1-grams] [1-POS detailed: True] [DEP] 
Features: [1-grams] [1-POS detailed: True] [DEP] 
Features: [1-grams] [1-POS detailed: True] [DEP] 
Accuracy: 0.8475
             precision    recall  f1-score   support

  deceptive      0.847     0.849     0.848       800
   truthful      0.848     0.846     0.847       800

avg / total      0.848     0.848     0.847      1600


Model: mlp
Five-fold cross-validation all polarity
Features: [1-grams] [1-POS detailed: True] [DEP] 
Features: [1-grams] [1-POS detailed: True] [DEP] 
Features: [1-grams] [1-POS detailed: True] [DEP] 
Features: [1-grams] [1-POS detailed: True] [DEP] 
Features: [1-grams] [1-POS detailed: True] [DEP] 
Accuracy: 0.875625
             precision    recall  f1-score   support

  deceptive      0.871     0.882     0.876       800
   truthful      0.881     0.869     0.875       800

avg / total      0.876     0.876     0.876      1600


Model: sgd
Five-fold cross-validation all polarity
Features: [1-grams] [1-POS detailed: True] [DEP] 
Features: [1-grams] [1-POS detailed: True] [DEP] 
Features: [1-grams] [1-POS detailed: True] [DEP] 
Features: [1-grams] [1-POS detailed: True] [DEP] 
Features: [1-grams] [1-POS detailed: True] [DEP] 
Accuracy: 0.869375
             precision    recall  f1-score   support

  deceptive      0.896     0.836     0.865       800
   truthful      0.846     0.902     0.874       800

avg / total      0.871     0.869     0.869      1600


Model: linear_svm
Five-fold cross-validation all polarity
Features: [1-grams] [1-POS detailed: True] [DEP] 
Features: [1-grams] [1-POS detailed: True] [DEP] 
Features: [1-grams] [1-POS detailed: True] [DEP] 
Features: [1-grams] [1-POS detailed: True] [DEP] 
Features: [1-grams] [1-POS detailed: True] [DEP] 
Accuracy: 0.879375
             precision    recall  f1-score   support

  deceptive      0.880     0.879     0.879       800
   truthful      0.879     0.880     0.879       800

avg / total      0.879     0.879     0.879      1600

################################ Unigrams + DEP + LIWC ################################

Model: svm
Five-fold cross-validation all polarity
Features: [1-grams] [LIWC] [DEP] 
Features: [1-grams] [LIWC] [DEP] 
Features: [1-grams] [LIWC] [DEP] 
Features: [1-grams] [LIWC] [DEP] 
Features: [1-grams] [LIWC] [DEP] 
Accuracy: 0.720625
             precision    recall  f1-score   support

  deceptive      0.682     0.826     0.747       800
   truthful      0.780     0.615     0.688       800

avg / total      0.731     0.721     0.717      1600


Model: nb
Five-fold cross-validation all polarity
Features: [1-grams] [LIWC] [DEP] 
Features: [1-grams] [LIWC] [DEP] 
Features: [1-grams] [LIWC] [DEP] 
Features: [1-grams] [LIWC] [DEP] 
Features: [1-grams] [LIWC] [DEP] 
Accuracy: 0.8575
             precision    recall  f1-score   support

  deceptive      0.845     0.876     0.860       800
   truthful      0.871     0.839     0.855       800

avg / total      0.858     0.858     0.857      1600


Model: random_forest
Five-fold cross-validation all polarity
Features: [1-grams] [LIWC] [DEP] 
Features: [1-grams] [LIWC] [DEP] 
Features: [1-grams] [LIWC] [DEP] 
Features: [1-grams] [LIWC] [DEP] 
Features: [1-grams] [LIWC] [DEP] 
Accuracy: 0.83375
             precision    recall  f1-score   support

  deceptive      0.830     0.839     0.835       800
   truthful      0.837     0.829     0.833       800

avg / total      0.834     0.834     0.834      1600


Model: logit
Five-fold cross-validation all polarity
Features: [1-grams] [LIWC] [DEP] 
Features: [1-grams] [LIWC] [DEP] 
Features: [1-grams] [LIWC] [DEP] 
Features: [1-grams] [LIWC] [DEP] 
Features: [1-grams] [LIWC] [DEP] 
Accuracy: 0.839375
             precision    recall  f1-score   support

  deceptive      0.841     0.838     0.839       800
   truthful      0.838     0.841     0.840       800

avg / total      0.839     0.839     0.839      1600


Model: mlp
Five-fold cross-validation all polarity
Features: [1-grams] [LIWC] [DEP] 
Features: [1-grams] [LIWC] [DEP] 
Features: [1-grams] [LIWC] [DEP] 
Features: [1-grams] [LIWC] [DEP] 
Features: [1-grams] [LIWC] [DEP] 
Accuracy: 0.869375
             precision    recall  f1-score   support

  deceptive      0.874     0.864     0.869       800
   truthful      0.865     0.875     0.870       800

avg / total      0.869     0.869     0.869      1600


Model: sgd
Five-fold cross-validation all polarity
Features: [1-grams] [LIWC] [DEP] 
Features: [1-grams] [LIWC] [DEP] 
Features: [1-grams] [LIWC] [DEP] 
Features: [1-grams] [LIWC] [DEP] 
Features: [1-grams] [LIWC] [DEP] 
Accuracy: 0.8575
             precision    recall  f1-score   support

  deceptive      0.893     0.812     0.851       800
   truthful      0.828     0.902     0.864       800

avg / total      0.860     0.858     0.857      1600


Model: linear_svm
Five-fold cross-validation all polarity
Features: [1-grams] [LIWC] [DEP] 
Features: [1-grams] [LIWC] [DEP] 
Features: [1-grams] [LIWC] [DEP] 
Features: [1-grams] [LIWC] [DEP] 
Features: [1-grams] [LIWC] [DEP] 
Accuracy: 0.870625
             precision    recall  f1-score   support

  deceptive      0.868     0.874     0.871       800
   truthful      0.873     0.868     0.870       800

avg / total      0.871     0.871     0.871      1600

################################ Unigrams + POS + DEP + LIWC ################################

Model: svm
Five-fold cross-validation all polarity
Features: [1-grams] [1-POS detailed: True] [LIWC] [DEP] 
Features: [1-grams] [1-POS detailed: True] [LIWC] [DEP] 
Features: [1-grams] [1-POS detailed: True] [LIWC] [DEP] 
Features: [1-grams] [1-POS detailed: True] [LIWC] [DEP] 
Features: [1-grams] [1-POS detailed: True] [LIWC] [DEP] 
Accuracy: 0.7
             precision    recall  f1-score   support

  deceptive      0.657     0.838     0.736       800
   truthful      0.776     0.562     0.652       800

avg / total      0.716     0.700     0.694      1600


Model: nb
Five-fold cross-validation all polarity
Features: [1-grams] [1-POS detailed: True] [LIWC] [DEP] 
Features: [1-grams] [1-POS detailed: True] [LIWC] [DEP] 
Features: [1-grams] [1-POS detailed: True] [LIWC] [DEP] 
Features: [1-grams] [1-POS detailed: True] [LIWC] [DEP] 
Features: [1-grams] [1-POS detailed: True] [LIWC] [DEP] 
Accuracy: 0.85875
             precision    recall  f1-score   support

  deceptive      0.843     0.881     0.862       800
   truthful      0.876     0.836     0.855       800

avg / total      0.859     0.859     0.859      1600


Model: random_forest
Five-fold cross-validation all polarity
Features: [1-grams] [1-POS detailed: True] [LIWC] [DEP] 
Features: [1-grams] [1-POS detailed: True] [LIWC] [DEP] 
Features: [1-grams] [1-POS detailed: True] [LIWC] [DEP] 
Features: [1-grams] [1-POS detailed: True] [LIWC] [DEP] 
Features: [1-grams] [1-POS detailed: True] [LIWC] [DEP] 
Accuracy: 0.833125
             precision    recall  f1-score   support

  deceptive      0.826     0.844     0.835       800
   truthful      0.840     0.823     0.831       800

avg / total      0.833     0.833     0.833      1600


Model: logit
Five-fold cross-validation all polarity
Features: [1-grams] [1-POS detailed: True] [LIWC] [DEP] 
Features: [1-grams] [1-POS detailed: True] [LIWC] [DEP] 
Features: [1-grams] [1-POS detailed: True] [LIWC] [DEP] 
Features: [1-grams] [1-POS detailed: True] [LIWC] [DEP] 
Features: [1-grams] [1-POS detailed: True] [LIWC] [DEP] 
Accuracy: 0.83375
             precision    recall  f1-score   support

  deceptive      0.837     0.829     0.833       800
   truthful      0.830     0.839     0.835       800

avg / total      0.834     0.834     0.834      1600


Model: mlp
Five-fold cross-validation all polarity
Features: [1-grams] [1-POS detailed: True] [LIWC] [DEP] 
Features: [1-grams] [1-POS detailed: True] [LIWC] [DEP] 
Features: [1-grams] [1-POS detailed: True] [LIWC] [DEP] 
Features: [1-grams] [1-POS detailed: True] [LIWC] [DEP] 
Features: [1-grams] [1-POS detailed: True] [LIWC] [DEP] 
Accuracy: 0.869375
             precision    recall  f1-score   support

  deceptive      0.869     0.870     0.869       800
   truthful      0.870     0.869     0.869       800

avg / total      0.869     0.869     0.869      1600


Model: sgd
Five-fold cross-validation all polarity
Features: [1-grams] [1-POS detailed: True] [LIWC] [DEP] 
Features: [1-grams] [1-POS detailed: True] [LIWC] [DEP] 
Features: [1-grams] [1-POS detailed: True] [LIWC] [DEP] 
Features: [1-grams] [1-POS detailed: True] [LIWC] [DEP] 
Features: [1-grams] [1-POS detailed: True] [LIWC] [DEP] 
Accuracy: 0.85125
             precision    recall  f1-score   support

  deceptive      0.900     0.790     0.842       800
   truthful      0.813     0.912     0.860       800

avg / total      0.857     0.851     0.851      1600


Model: linear_svm
Five-fold cross-validation all polarity
Features: [1-grams] [1-POS detailed: True] [LIWC] [DEP] 
Features: [1-grams] [1-POS detailed: True] [LIWC] [DEP] 
Features: [1-grams] [1-POS detailed: True] [LIWC] [DEP] 
Features: [1-grams] [1-POS detailed: True] [LIWC] [DEP] 
Features: [1-grams] [1-POS detailed: True] [LIWC] [DEP] 
Accuracy: 0.86625
             precision    recall  f1-score   support

  deceptive      0.861     0.874     0.867       800
   truthful      0.872     0.859     0.865       800

avg / total      0.866     0.866     0.866      1600

################################ Bigrams + POS + DEP + LIWC ################################

Model: svm
Five-fold cross-validation all polarity
Features: [2-grams] [1-POS detailed: True] [LIWC] [DEP] 
Features: [2-grams] [1-POS detailed: True] [LIWC] [DEP] 
Features: [2-grams] [1-POS detailed: True] [LIWC] [DEP] 
Features: [2-grams] [1-POS detailed: True] [LIWC] [DEP] 
Features: [2-grams] [1-POS detailed: True] [LIWC] [DEP] 
Accuracy: 0.72375
             precision    recall  f1-score   support

  deceptive      0.694     0.800     0.743       800
   truthful      0.764     0.647     0.701       800

avg / total      0.729     0.724     0.722      1600


Model: nb
Five-fold cross-validation all polarity
Features: [2-grams] [1-POS detailed: True] [LIWC] [DEP] 
Features: [2-grams] [1-POS detailed: True] [LIWC] [DEP] 
Features: [2-grams] [1-POS detailed: True] [LIWC] [DEP] 
Features: [2-grams] [1-POS detailed: True] [LIWC] [DEP] 
Features: [2-grams] [1-POS detailed: True] [LIWC] [DEP] 
Accuracy: 0.87625
             precision    recall  f1-score   support

  deceptive      0.831     0.944     0.884       800
   truthful      0.935     0.809     0.867       800

avg / total      0.883     0.876     0.876      1600


Model: random_forest
Five-fold cross-validation all polarity
Features: [2-grams] [1-POS detailed: True] [LIWC] [DEP] 
Features: [2-grams] [1-POS detailed: True] [LIWC] [DEP] 
Features: [2-grams] [1-POS detailed: True] [LIWC] [DEP] 
Features: [2-grams] [1-POS detailed: True] [LIWC] [DEP] 
Features: [2-grams] [1-POS detailed: True] [LIWC] [DEP] 
Accuracy: 0.839375
             precision    recall  f1-score   support

  deceptive      0.821     0.869     0.844       800
   truthful      0.861     0.810     0.835       800

avg / total      0.841     0.839     0.839      1600


Model: logit
Five-fold cross-validation all polarity
Features: [2-grams] [1-POS detailed: True] [LIWC] [DEP] 
Features: [2-grams] [1-POS detailed: True] [LIWC] [DEP] 
Features: [2-grams] [1-POS detailed: True] [LIWC] [DEP] 
Features: [2-grams] [1-POS detailed: True] [LIWC] [DEP] 
Features: [2-grams] [1-POS detailed: True] [LIWC] [DEP] 
Accuracy: 0.8575
             precision    recall  f1-score   support

  deceptive      0.858     0.856     0.857       800
   truthful      0.857     0.859     0.858       800

avg / total      0.858     0.858     0.857      1600


Model: mlp
Five-fold cross-validation all polarity
Features: [2-grams] [1-POS detailed: True] [LIWC] [DEP] 
Features: [2-grams] [1-POS detailed: True] [LIWC] [DEP] 
Features: [2-grams] [1-POS detailed: True] [LIWC] [DEP] 
Features: [2-grams] [1-POS detailed: True] [LIWC] [DEP] 
Features: [2-grams] [1-POS detailed: True] [LIWC] [DEP] 
Accuracy: 0.88
             precision    recall  f1-score   support

  deceptive      0.873     0.889     0.881       800
   truthful      0.887     0.871     0.879       800

avg / total      0.880     0.880     0.880      1600


Model: sgd
Five-fold cross-validation all polarity
Features: [2-grams] [1-POS detailed: True] [LIWC] [DEP] 
Features: [2-grams] [1-POS detailed: True] [LIWC] [DEP] 
Features: [2-grams] [1-POS detailed: True] [LIWC] [DEP] 
Features: [2-grams] [1-POS detailed: True] [LIWC] [DEP] 
Features: [2-grams] [1-POS detailed: True] [LIWC] [DEP] 
Accuracy: 0.868125
             precision    recall  f1-score   support

  deceptive      0.892     0.838     0.864       800
   truthful      0.847     0.899     0.872       800

avg / total      0.870     0.868     0.868      1600


Model: linear_svm
Five-fold cross-validation all polarity
Features: [2-grams] [1-POS detailed: True] [LIWC] [DEP] 
Features: [2-grams] [1-POS detailed: True] [LIWC] [DEP] 
Features: [2-grams] [1-POS detailed: True] [LIWC] [DEP] 
Features: [2-grams] [1-POS detailed: True] [LIWC] [DEP] 
Features: [2-grams] [1-POS detailed: True] [LIWC] [DEP] 
Accuracy: 0.880625
             precision    recall  f1-score   support

  deceptive      0.879     0.882     0.881       800
   truthful      0.882     0.879     0.880       800

avg / total      0.881     0.881     0.881      1600

################################ Bigrams + BIPOS + DEP + LIWC ################################

Model: svm
Five-fold cross-validation all polarity
Features: [2-grams] [2-POS detailed: False] [LIWC] [DEP] 
Features: [2-grams] [2-POS detailed: False] [LIWC] [DEP] 
Features: [2-grams] [2-POS detailed: False] [LIWC] [DEP] 
Features: [2-grams] [2-POS detailed: False] [LIWC] [DEP] 
Features: [2-grams] [2-POS detailed: False] [LIWC] [DEP] 
Accuracy: 0.730625
             precision    recall  f1-score   support

  deceptive      0.690     0.836     0.756       800
   truthful      0.792     0.625     0.699       800

avg / total      0.741     0.731     0.728      1600


Model: nb
Five-fold cross-validation all polarity
Features: [2-grams] [2-POS detailed: False] [LIWC] [DEP] 
Features: [2-grams] [2-POS detailed: False] [LIWC] [DEP] 
Features: [2-grams] [2-POS detailed: False] [LIWC] [DEP] 
Features: [2-grams] [2-POS detailed: False] [LIWC] [DEP] 
Features: [2-grams] [2-POS detailed: False] [LIWC] [DEP] 
Accuracy: 0.875625
             precision    recall  f1-score   support

  deceptive      0.831     0.944     0.884       800
   truthful      0.935     0.807     0.867       800

avg / total      0.883     0.876     0.875      1600


Model: random_forest
Five-fold cross-validation all polarity
Features: [2-grams] [2-POS detailed: False] [LIWC] [DEP] 
Features: [2-grams] [2-POS detailed: False] [LIWC] [DEP] 
Features: [2-grams] [2-POS detailed: False] [LIWC] [DEP] 
Features: [2-grams] [2-POS detailed: False] [LIWC] [DEP] 
Features: [2-grams] [2-POS detailed: False] [LIWC] [DEP] 
Accuracy: 0.846875
             precision    recall  f1-score   support

  deceptive      0.828     0.876     0.851       800
   truthful      0.869     0.818     0.842       800

avg / total      0.848     0.847     0.847      1600


Model: logit
Five-fold cross-validation all polarity
Features: [2-grams] [2-POS detailed: False] [LIWC] [DEP] 
Features: [2-grams] [2-POS detailed: False] [LIWC] [DEP] 
Features: [2-grams] [2-POS detailed: False] [LIWC] [DEP] 
Features: [2-grams] [2-POS detailed: False] [LIWC] [DEP] 
Features: [2-grams] [2-POS detailed: False] [LIWC] [DEP] 
Accuracy: 0.853125
             precision    recall  f1-score   support

  deceptive      0.853     0.854     0.853       800
   truthful      0.854     0.853     0.853       800

avg / total      0.853     0.853     0.853      1600


Model: mlp
Five-fold cross-validation all polarity
Features: [2-grams] [2-POS detailed: False] [LIWC] [DEP] 
Features: [2-grams] [2-POS detailed: False] [LIWC] [DEP] 
Features: [2-grams] [2-POS detailed: False] [LIWC] [DEP] 
Features: [2-grams] [2-POS detailed: False] [LIWC] [DEP] 
Features: [2-grams] [2-POS detailed: False] [LIWC] [DEP] 
Accuracy: 0.88125
             precision    recall  f1-score   support

  deceptive      0.876     0.889     0.882       800
   truthful      0.887     0.874     0.880       800

avg / total      0.881     0.881     0.881      1600


Model: sgd
Five-fold cross-validation all polarity
Features: [2-grams] [2-POS detailed: False] [LIWC] [DEP] 
Features: [2-grams] [2-POS detailed: False] [LIWC] [DEP] 
Features: [2-grams] [2-POS detailed: False] [LIWC] [DEP] 
Features: [2-grams] [2-POS detailed: False] [LIWC] [DEP] 
Features: [2-grams] [2-POS detailed: False] [LIWC] [DEP] 
Accuracy: 0.871875
             precision    recall  f1-score   support

  deceptive      0.898     0.839     0.867       800
   truthful      0.849     0.905     0.876       800

avg / total      0.874     0.872     0.872      1600


Model: linear_svm
Five-fold cross-validation all polarity
Features: [2-grams] [2-POS detailed: False] [LIWC] [DEP] 
Features: [2-grams] [2-POS detailed: False] [LIWC] [DEP] 
Features: [2-grams] [2-POS detailed: False] [LIWC] [DEP] 
Features: [2-grams] [2-POS detailed: False] [LIWC] [DEP] 
Features: [2-grams] [2-POS detailed: False] [LIWC] [DEP] 
Accuracy: 0.88625
             precision    recall  f1-score   support

  deceptive      0.887     0.885     0.886       800
   truthful      0.885     0.887     0.886       800

avg / total      0.886     0.886     0.886      1600

################################ Bigrams + BIPOS+ + DEP + LIWC ################################

Model: svm
Five-fold cross-validation all polarity
Features: [2-grams] [2+-POS detailed: True] [LIWC] [DEP] 
Features: [2-grams] [2+-POS detailed: True] [LIWC] [DEP] 
Features: [2-grams] [2+-POS detailed: True] [LIWC] [DEP] 
Features: [2-grams] [2+-POS detailed: True] [LIWC] [DEP] 
Features: [2-grams] [2+-POS detailed: True] [LIWC] [DEP] 
Accuracy: 0.72
             precision    recall  f1-score   support

  deceptive      0.688     0.805     0.742       800
   truthful      0.765     0.635     0.694       800

avg / total      0.727     0.720     0.718      1600


Model: nb
Five-fold cross-validation all polarity
Features: [2-grams] [2+-POS detailed: True] [LIWC] [DEP] 
Features: [2-grams] [2+-POS detailed: True] [LIWC] [DEP] 
Features: [2-grams] [2+-POS detailed: True] [LIWC] [DEP] 
Features: [2-grams] [2+-POS detailed: True] [LIWC] [DEP] 
Features: [2-grams] [2+-POS detailed: True] [LIWC] [DEP] 
Accuracy: 0.87375
             precision    recall  f1-score   support

  deceptive      0.829     0.943     0.882       800
   truthful      0.933     0.805     0.864       800

avg / total      0.881     0.874     0.873      1600


Model: random_forest
Five-fold cross-validation all polarity
Features: [2-grams] [2+-POS detailed: True] [LIWC] [DEP] 
Features: [2-grams] [2+-POS detailed: True] [LIWC] [DEP] 
Features: [2-grams] [2+-POS detailed: True] [LIWC] [DEP] 
Features: [2-grams] [2+-POS detailed: True] [LIWC] [DEP] 
Features: [2-grams] [2+-POS detailed: True] [LIWC] [DEP] 
Accuracy: 0.834375
             precision    recall  f1-score   support

  deceptive      0.813     0.869     0.840       800
   truthful      0.859     0.800     0.828       800

avg / total      0.836     0.834     0.834      1600


Model: logit
Five-fold cross-validation all polarity
Features: [2-grams] [2+-POS detailed: True] [LIWC] [DEP] 
Features: [2-grams] [2+-POS detailed: True] [LIWC] [DEP] 
Features: [2-grams] [2+-POS detailed: True] [LIWC] [DEP] 
Features: [2-grams] [2+-POS detailed: True] [LIWC] [DEP] 
Features: [2-grams] [2+-POS detailed: True] [LIWC] [DEP] 
Accuracy: 0.850625
             precision    recall  f1-score   support

  deceptive      0.851     0.850     0.851       800
   truthful      0.850     0.851     0.851       800

avg / total      0.851     0.851     0.851      1600


Model: mlp
Five-fold cross-validation all polarity
Features: [2-grams] [2+-POS detailed: True] [LIWC] [DEP] 
Features: [2-grams] [2+-POS detailed: True] [LIWC] [DEP] 
Features: [2-grams] [2+-POS detailed: True] [LIWC] [DEP] 
Features: [2-grams] [2+-POS detailed: True] [LIWC] [DEP] 
Features: [2-grams] [2+-POS detailed: True] [LIWC] [DEP] 
Accuracy: 0.875625
             precision    recall  f1-score   support

  deceptive      0.872     0.880     0.876       800
   truthful      0.879     0.871     0.875       800

avg / total      0.876     0.876     0.876      1600


Model: sgd
Five-fold cross-validation all polarity
Features: [2-grams] [2+-POS detailed: True] [LIWC] [DEP] 
Features: [2-grams] [2+-POS detailed: True] [LIWC] [DEP] 
Features: [2-grams] [2+-POS detailed: True] [LIWC] [DEP] 
Features: [2-grams] [2+-POS detailed: True] [LIWC] [DEP] 
Features: [2-grams] [2+-POS detailed: True] [LIWC] [DEP] 
Accuracy: 0.870625
             precision    recall  f1-score   support

  deceptive      0.898     0.836     0.866       800
   truthful      0.847     0.905     0.875       800

avg / total      0.872     0.871     0.870      1600


Model: linear_svm
Five-fold cross-validation all polarity
Features: [2-grams] [2+-POS detailed: True] [LIWC] [DEP] 
Features: [2-grams] [2+-POS detailed: True] [LIWC] [DEP] 
Features: [2-grams] [2+-POS detailed: True] [LIWC] [DEP] 
Features: [2-grams] [2+-POS detailed: True] [LIWC] [DEP] 
Features: [2-grams] [2+-POS detailed: True] [LIWC] [DEP] 
Accuracy: 0.87875
             precision    recall  f1-score   support

  deceptive      0.875     0.884     0.879       800
   truthful      0.883     0.874     0.878       800

avg / total      0.879     0.879     0.879      1600

